<?xml version="1.0" encoding="utf-8"?>
<!DOCTYPE svg PUBLIC "-//W3C//DTD SVG 1.1//EN" "http://www.w3.org/Graphics/SVG/1.1/DTD/svg11.dtd">
<svg version="1.1" baseProfile="full"
 xmlns="http://www.w3.org/2000/svg"
 xmlns:xlink="http://www.w3.org/1999/xlink"
 xmlns:ev="http://www.w3.org/2001/xml-events" 
  height="19px" 
  width="10px" 
>
<path stroke="#000" stroke-width="2px" stroke-linecap="butt" stroke-linejoin="miter" fill="none"
 d="M0.07399999999996,18.882 L9.75999999999999,9.5 L0.07399999999996,0.117  "/>
</svg>
