<?xml version="1.0" encoding="utf-8"?>
<!DOCTYPE svg PUBLIC "-//W3C//DTD SVG 1.1//EN" "http://www.w3.org/Graphics/SVG/1.1/DTD/svg11.dtd">
<svg version="1.1" baseProfile="full"
 xmlns="http://www.w3.org/2000/svg"
 xmlns:xlink="http://www.w3.org/1999/xlink"
 xmlns:ev="http://www.w3.org/2001/xml-events" 
  height="44px" 
  width="31px" 
>
<path fill="#c7c6c6"
 d="M30.568,21.206 L1.568,1.231 C1.261,1.021 0.863,0.999 0.535,1.169 C0.206,1.342 -0,1.682 -0,2.053 L-0,42.002 C-0,42.374 0.206,42.715 0.535,42.887 C0.681,42.963 0.841,43.001 1,43.001 C1.199,43.001 1.397,42.941 1.568,42.824 L30.568,22.85 C30.839,22.663 31,22.356 31,22.028 C31,21.699 30.838,21.393 30.568,21.206 Z "/>
</svg>
