<?xml version="1.0" encoding="utf-8"?>
<!DOCTYPE svg PUBLIC "-//W3C//DTD SVG 1.1//EN" "http://www.w3.org/Graphics/SVG/1.1/DTD/svg11.dtd">
<svg version="1.1" baseProfile="full"
 xmlns="http://www.w3.org/2000/svg"
 xmlns:xlink="http://www.w3.org/1999/xlink"
 xmlns:ev="http://www.w3.org/2001/xml-events" viewBox="0 0 34 34">
<path d="M 17,17 m 0,-16 a 16,16 0 1 1 0,32 a 16,16 0 1 1 0,-32" stroke="#11b411" stroke-width="2" fill-opacity="0" style="stroke-dasharray: 100.5, 100.5; stroke-dashoffset: 40;"></path>
</svg>