<?xml version="1.0" encoding="utf-8"?>
<!DOCTYPE svg PUBLIC "-//W3C//DTD SVG 1.1//EN" "http://www.w3.org/Graphics/SVG/1.1/DTD/svg11.dtd">
<svg version="1.1" baseProfile="full"
 xmlns="http://www.w3.org/2000/svg"
 xmlns:xlink="http://www.w3.org/1999/xlink"
 xmlns:ev="http://www.w3.org/2001/xml-events" 
  height="18px" 
  width="17px" 
>
<path fill="rgb( 255, 255, 255 )"
 d="M16.177,0 L0.82299999999998,0 C0.36800000000005,0 0,0.36599999999999 0,0.81799999999998 L0,4.09100000000001 C0,4.322 0.09799999999996,4.541 0.26900000000001,4.69600000000003 L6.03200000000004,9.90699999999998 L6.03200000000004,17.182 C6.03200000000004,17.465 6.17999999999995,17.729 6.42200000000003,17.878 C6.55499999999995,17.959 6.70399999999995,18 6.85500000000002,18 C6.98099999999999,18 7.10699999999997,17.971 7.22299999999996,17.914 L10.513,16.277 C10.792,16.138 10.968,15.855 10.968,15.545 L10.968,9.90699999999998 L16.731,4.69600000000003 C16.902,4.541 17,4.322 17,4.09100000000001 L17,0.81799999999998 C17,0.36599999999999 16.6319999999999,0 16.177,0 ZM9.59199999999998,8.94 C9.41999999999996,9.09500000000003 9.32299999999998,9.315 9.32299999999998,9.54500000000002 L9.32299999999998,15.04 L7.67700000000002,15.858 L7.67700000000002,9.54500000000002 C7.67700000000002,9.315 7.58000000000004,9.09500000000003 7.40800000000002,8.94 L2.95000000000005,4.90899999999999 L14.05,4.90899999999999 L9.59199999999998,8.94 ZM15.355,3.27300000000002 L1.64499999999998,3.27300000000002 L1.64499999999998,1.63600000000002 L15.355,1.63600000000002 L15.355,3.27300000000002 Z "/>
</svg>
