<?xml version="1.0" encoding="utf-8"?>
<!DOCTYPE svg PUBLIC "-//W3C//DTD SVG 1.1//EN" "http://www.w3.org/Graphics/SVG/1.1/DTD/svg11.dtd">
<svg version="1.1" baseProfile="full"
 xmlns="http://www.w3.org/2000/svg"
 xmlns:xlink="http://www.w3.org/1999/xlink"
 xmlns:ev="http://www.w3.org/2001/xml-events" 
  height="25px" 
  width="29px" 
>
<defs>
<filter id="Filter_0">
  <feFlood flood-color="rgb( 232, 186, 1 )" flood-opacity="1" result="floodOut" />
  <feComposite operator="atop" in="floodOut" in2="SourceGraphic" result="compOut" />
  <feBlend mode="normal" in="compOut" in2="SourceGraphic" />
</filter>

</defs><g filter="url(#Filter_0)">
<path fill="rgb( 0, 0, 0 )"
 d="M26.451,20.359 L18.592,20.359 L18.592,23.384 L20.472,23.384 C20.941,23.384 21.321,23.746 21.321,24.192 C21.321,24.638 20.941,25 20.472,25 L8.52800000000001,25 C8.059,25 7.679,24.638 7.679,24.192 C7.679,23.746 8.059,23.384 8.52800000000001,23.384 L10.408,23.384 L10.408,20.359 L2.549,20.359 C1.143,20.359 0,19.272 0,17.9349999999999 L0,2.42499999999995 C0,1.08799999999997 1.143,0 2.549,0 L26.451,0 C27.857,0 29,1.08799999999997 29,2.42499999999995 L29,17.9349999999999 C29,19.272 27.857,20.359 26.451,20.359 ZM12.107,23.384 L16.893,23.384 L16.893,20.359 L12.107,20.359 L12.107,23.384 ZM27.301,2.42499999999995 C27.301,1.97900000000004 26.92,1.61599999999999 26.451,1.61599999999999 L2.549,1.61599999999999 C2.08,1.61599999999999 1.699,1.97900000000004 1.699,2.42499999999995 L1.699,3.89300000000003 L27.301,3.89300000000003 L27.301,2.42499999999995 ZM27.301,5.50900000000001 L1.699,5.50900000000001 L1.699,14.85 L27.301,14.85 L27.301,5.50900000000001 ZM27.301,16.466 L1.699,16.466 L1.699,17.9349999999999 C1.699,18.38 2.08,18.7430000000001 2.549,18.7430000000001 L26.451,18.7430000000001 C26.92,18.7430000000001 27.301,18.38 27.301,17.9349999999999 L27.301,16.466 ZM19.572,8.80999999999995 C19.903,9.125 19.903,9.63699999999994 19.572,9.952 C19.406,10.11 19.188,10.189 18.971,10.189 C18.753,10.189 18.536,10.11 18.37,9.952 C16.236,7.923 12.764,7.923 10.63,9.952 C10.298,10.268 9.76000000000001,10.268 9.428,9.952 C9.09699999999999,9.63699999999994 9.09699999999999,9.125 9.428,8.80999999999995 C12.225,6.149 16.775,6.149 19.572,8.80999999999995 ZM17.631,10.655 C17.963,10.971 17.963,11.482 17.631,11.798 C17.465,11.956 17.248,12.035 17.031,12.035 C16.813,12.035 16.596,11.956 16.43,11.798 C15.366,10.7859999999999 13.634,10.7859999999999 12.57,11.798 C12.238,12.114 11.7,12.114 11.369,11.798 C11.037,11.482 11.037,10.971 11.369,10.655 C13.095,9.01300000000003 15.905,9.01300000000003 17.631,10.655 ZM15.661,12.53 C15.992,12.845 15.992,13.357 15.661,13.672 C15.495,13.83 15.277,13.909 15.06,13.909 C14.86,13.909 14.66,13.843 14.5,13.7089999999999 C14.166,13.9880000000001 13.658,13.976 13.339,13.672 C13.008,13.357 13.008,12.845 13.339,12.53 C13.979,11.921 15.021,11.921 15.661,12.53 Z "/>
</g>
</svg>
