<?xml version="1.0" encoding="utf-8"?>
<!DOCTYPE svg PUBLIC "-//W3C//DTD SVG 1.1//EN" "http://www.w3.org/Graphics/SVG/1.1/DTD/svg11.dtd">
<svg version="1.1" baseProfile="full"
 xmlns="http://www.w3.org/2000/svg"
 xmlns:xlink="http://www.w3.org/1999/xlink"
 xmlns:ev="http://www.w3.org/2001/xml-events" 
  height="513px" 
  width="448px" 
>
<path fill="rgb( 0, 0, 0 )"
 d="M416,160.703 C398.4,160.703 384,175.115 384,192.729 L384,320.837 C384,338.452 398.4,352.864 416,352.864 C433.6,352.864 448,338.452 448,320.837 L448,192.729 C448,175.115 433.6,160.703 416,160.703 ZM32,160.703 C14.4,160.703 -0,175.115 -0,192.729 L-0,320.837 C-0,338.452 14.4,352.864 32,352.864 C49.6,352.864 64,338.452 64,320.837 L64,192.729 C64,175.115 49.599,160.703 32,160.703 ZM80,368.878 C80,395.41 101.49,416.918 128,416.918 L144,416.918 L144,480.972 C144,498.586 158.4,512.999 176,512.999 C193.6,512.999 208,498.586 208,480.972 L208,416.918 L240,416.918 L240,480.972 C240,498.586 254.4,512.999 272,512.999 C289.6,512.999 304,498.586 304,480.972 L304,416.918 L320,416.918 C346.51,416.918 368,395.41 368,368.878 L368,192.729 L80,192.729 L80,368.878 ZM283.299,45.353 L303.551,6.416 C304.568,4.464 303.801,2.034 301.85,1.017 C299.9,0 297.471,0.767 296.455,2.72 L275.897,42.246 C259.797,36.017 242.299,32.595 224,32.595 C205.702,32.595 188.204,36.017 172.102,42.246 L151.544,2.721 C150.528,0.768 148.101,0.001 146.149,1.018 C144.197,2.035 143.432,4.464 144.448,6.418 L164.698,45.355 C119.383,65.881 86.578,109.2 80.888,160.704 L367.108,160.704 C361.42,109.198 328.615,65.88 283.299,45.353 ZM160,135.882 C147.187,135.882 136.8,125.486 136.8,112.662 C136.8,99.838 147.187,89.442 160,89.442 C172.813,89.442 183.2,99.838 183.2,112.662 C183.199,125.486 172.813,135.882 160,135.882 ZM288,135.882 C275.188,135.882 264.799,125.486 264.799,112.662 C264.799,99.838 275.188,89.442 288,89.442 C300.813,89.442 311.199,99.838 311.199,112.662 C311.199,125.486 300.813,135.882 288,135.882 Z "/>
</svg>
