<?xml version="1.0" encoding="utf-8"?>
<!DOCTYPE svg PUBLIC "-//W3C//DTD SVG 1.1//EN" "http://www.w3.org/Graphics/SVG/1.1/DTD/svg11.dtd">
<svg version="1.1" baseProfile="full"
 xmlns="http://www.w3.org/2000/svg"
 xmlns:xlink="http://www.w3.org/1999/xlink"
 xmlns:ev="http://www.w3.org/2001/xml-events" 
  height="50px" 
  width="53px" 
>
<path fill="#000"
 d="M51.704,15.309 C50.951,7.012 45.085,0.993 37.744,0.993 C32.854,0.993 28.376,3.628 25.856,7.851 C23.359,3.573 19.065,0.992 14.252,0.992 C6.913,0.992 1.046,7.011 0.294,15.308 C0.234,15.675 -0.01,17.603 0.732,20.749 C1.802,25.285 4.272,29.412 7.874,32.679 L25.844,49.006 L44.123,32.68 C47.725,29.412 50.195,25.286 51.264,20.749 C52.006,17.604 51.762,15.676 51.704,15.309 Z "/>
</svg>
