<?xml version="1.0" encoding="utf-8"?>
<!DOCTYPE svg PUBLIC "-//W3C//DTD SVG 1.1//EN" "http://www.w3.org/Graphics/SVG/1.1/DTD/svg11.dtd">
<svg version="1.1" baseProfile="full"
 xmlns="http://www.w3.org/2000/svg"
 xmlns:xlink="http://www.w3.org/1999/xlink"
 xmlns:ev="http://www.w3.org/2001/xml-events" 
  height="613px" 
  width="613px" 
>
<path fill="#fff"
 d="M306.5,0.5 C137.503,0.5 0.5,137.501 0.5,306.5 C0.5,475.499 137.503,612.5 306.5,612.5 C475.497,612.5 612.5,475.499 612.5,306.5 C612.5,137.501 475.497,0.5 306.5,0.5 ZM412.262,322.721 L259.261,418.346 C256.165,420.278 252.645,421.25 249.125,421.25 C245.936,421.25 242.742,420.456 239.852,418.85 C233.772,415.479 230,409.082 230,402.125 L230,210.875 C230,203.918 233.772,197.521 239.852,194.15 C245.931,190.76 253.365,190.966 259.261,194.655 L412.262,290.28 C417.851,293.782 421.25,299.908 421.25,306.5 C421.25,313.092 417.851,319.22 412.262,322.721 Z "/>
</svg>
